<svg xmlns="http://www.w3.org/2000/svg" width="26" height="24.727" viewBox="0 0 26 24.727">
  <path id="filled_star" data-name="filled star" d="M13,0l4.018,8.14L26,9.444l-6.5,6.339,1.533,8.944L13,20.5,4.965,24.727,6.5,15.783,0,9.444l8.982-1.3Z" fill="#ffc400"/>
</svg>
