<svg xmlns="http://www.w3.org/2000/svg" width="576.211" height="43.001" viewBox="0 0 576.211 43.001">
  <g id="Group_909" data-name="Group 909" transform="translate(17530.5 16362.002)">
    <path id="Subtraction_32" data-name="Subtraction 32" d="M21.5,43A21.5,21.5,0,0,1,6.3,6.3,21.5,21.5,0,0,1,36.7,36.7,21.364,21.364,0,0,1,21.5,43Zm0-31A9.5,9.5,0,1,0,31,21.5,9.511,9.511,0,0,0,21.5,12Z" transform="translate(-16954.289 -16319.001) rotate(180)" fill="#b28c67"/>
    <path id="Subtraction_33" data-name="Subtraction 33" d="M21.5,43A21.5,21.5,0,0,1,6.3,6.3,21.5,21.5,0,0,1,36.7,36.7,21.364,21.364,0,0,1,21.5,43Zm0-31A9.5,9.5,0,1,0,31,21.5,9.511,9.511,0,0,0,21.5,12Z" transform="translate(-17126.02 -16319.001) rotate(180)" fill="#b28c67"/>
    <path id="Subtraction_35" data-name="Subtraction 35" d="M21.5,43A21.5,21.5,0,0,1,6.3,6.3,21.5,21.5,0,0,1,36.7,36.7,21.364,21.364,0,0,1,21.5,43Zm0-31A9.5,9.5,0,1,0,31,21.5,9.511,9.511,0,0,0,21.5,12Z" transform="translate(-17487.5 -16319.001) rotate(180)" fill="#b28c67"/>
    <path id="Path_2542" data-name="Path 2542" d="M38.773,0h140.51" transform="translate(-17171.043 -16340.502)" fill="none" stroke="#b28c67" stroke-width="12"/>
    <path id="Path_2541" data-name="Path 2541" d="M15.355,0H161.877" transform="translate(-17321.834 -16340.502)" fill="none" stroke="#b28c67" stroke-width="12"/>
    <line id="Line_46" data-name="Line 46" x2="160.5" transform="translate(-17494 -16340.502)" fill="none" stroke="#b28c67" stroke-width="12"/>
    <path id="Subtraction_34" data-name="Subtraction 34" d="M21.5,43A21.5,21.5,0,0,1,6.3,6.3,21.5,21.5,0,0,1,36.7,36.7,21.364,21.364,0,0,1,21.5,43Zm0-31A9.5,9.5,0,1,0,31,21.5,9.511,9.511,0,0,0,21.5,12Z" transform="translate(-17297.473 -16319.001) rotate(180)" fill="#b28c67"/>
  </g>
</svg>
