<svg xmlns="http://www.w3.org/2000/svg" width="38.668" height="55.854" viewBox="0 0 38.668 55.854">
  <path id="pin" d="M4.082,29.648A18.617,18.617,0,0,1,.717,18.958,19.149,19.149,0,0,1,20.051,0,19.149,19.149,0,0,1,39.385,18.958a18.593,18.593,0,0,1-2.575,9.459h.019L20.18,55.852Z" transform="translate(-0.717 0.001)" fill="#50456d"/>
</svg>
