<svg xmlns="http://www.w3.org/2000/svg" width="51.667" height="74.854" viewBox="0 0 51.667 74.854">
  <path id="pin_highlighted" data-name="pin highlighted" d="M6.074,40.9A25.027,25.027,0,0,1,.717,25.407,25.624,25.624,0,0,1,26.551,0,25.624,25.624,0,0,1,52.385,25.407a24.969,24.969,0,0,1-3.441,12.677h.086L26.722,74.852Z" transform="translate(-0.717 0.001)" fill="#ce8d8d"/>
</svg>
