<svg xmlns="http://www.w3.org/2000/svg" xmlns:xlink="http://www.w3.org/1999/xlink" width="205" height="73" viewBox="0 0 205 73">
  <defs>
    <clipPath id="clip-path">
      <rect id="Rectangle_2982" data-name="Rectangle 2982" width="78" height="60" transform="translate(0 6)" fill="#fff"/>
    </clipPath>
  </defs>
  <g id="Group_42097" data-name="Group 42097" transform="translate(-9288 19114)">
    <g id="logo" transform="translate(9288 -19107)">
      <g id="Group_42096" data-name="Group 42096" clip-path="url(#clip-path)">
        <ellipse id="Ellipse_63" data-name="Ellipse 63" cx="13.519" cy="19.377" rx="13.519" ry="19.377" transform="matrix(0.995, 0.103, -0.103, 0.995, 48.993, 6)" fill="#fdc040" opacity="0.8"/>
        <ellipse id="Ellipse_64" data-name="Ellipse 64" cx="13.519" cy="19.377" rx="13.519" ry="19.377" transform="translate(22 18.736) rotate(-18.851)" fill="#fdc040"/>
        <path id="Path_56173" data-name="Path 56173" d="M27,39H75.071A3.688,3.688,0,0,1,76.8,41c.576,1.5,2.2,23.5-25.3,19-21.638,0-26.687-.667-26.495-1C29,58,29.5,54,30,51S27,39,27,39Z" fill="#81b13d"/>
        <path id="Path_56174" data-name="Path 56174" d="M63.117,18.432a1.143,1.143,0,0,0-1.143,1.143v.183a1.143,1.143,0,1,0,2.285,0v-.183A1.142,1.142,0,0,0,63.117,18.432Z" fill="#253d4e"/>
        <path id="Path_56175" data-name="Path 56175" d="M66.085,23.53a1.142,1.142,0,0,0-1.143,1.142v.182a1.143,1.143,0,0,0,2.285,0v-.182A1.142,1.142,0,0,0,66.085,23.53Z" fill="#253d4e"/>
        <path id="Path_56176" data-name="Path 56176" d="M41.067,22.457l-.085-.162a1.143,1.143,0,1,0-2.026,1.057l.085.162a1.143,1.143,0,1,0,2.026-1.057Z" fill="#253d4e"/>
        <path id="Path_56177" data-name="Path 56177" d="M46.057,25.6l-.085-.162A1.143,1.143,0,1,0,43.947,26.5l.085.162A1.143,1.143,0,0,0,46.057,25.6Z" fill="#253d4e"/>
        <path id="Path_56178" data-name="Path 56178" d="M38.947,48.334l-3.4-3.4a1.143,1.143,0,0,0-1.616,1.616l3.4,3.4a1.143,1.143,0,1,0,1.616-1.616Z" fill="#253d4e"/>
        <path id="Path_56179" data-name="Path 56179" d="M49.045,46.2a1.142,1.142,0,0,0-1.593-.268L35.591,54.381a1.143,1.143,0,1,0,1.325,1.861L48.777,47.8A1.143,1.143,0,0,0,49.045,46.2Z" fill="#253d4e"/>
        <path id="Path_56180" data-name="Path 56180" d="M53.238,47.928a1.142,1.142,0,0,0-1.593-.268L47.092,50.9a1.143,1.143,0,1,0,1.325,1.861l4.553-3.241A1.143,1.143,0,0,0,53.238,47.928Z" fill="#253d4e"/>
        <path id="Path_56181" data-name="Path 56181" d="M77.784,42.744a1.143,1.143,0,0,0-1.6-.259l-.381.274c0-.1,0-.2,0-.294a4.082,4.082,0,0,0-4.084-4.084H71.39a18.775,18.775,0,0,0,1.891-8.708c0-6.6-2.476-13.825-6.308-18.392a1.143,1.143,0,1,0-1.751,1.469C68.729,16.93,71,23.573,71,29.673a15.619,15.619,0,0,1-2.246,8.708H66.487l1.005-.716A1.143,1.143,0,1,0,66.167,35.8l-3.62,2.577h-6.8c.685-3.469-.028-7.345-2.1-11.31a31.3,31.3,0,0,0-6.007-7.909c2.493-6.306,6.619-10.341,10.64-10.341a7.2,7.2,0,0,1,3.637,1.05A1.143,1.143,0,1,0,63.071,7.9a9.457,9.457,0,0,0-4.785-1.36c-4.864,0-9.541,4.179-12.449,11.015a27.979,27.979,0,0,0-3.063-2.2c-4.922-3.04-9.583-3.7-13.124-1.847-3.266,1.707-5.358,5.491-5.891,10.656a1.142,1.142,0,1,0,2.273.234c.452-4.377,2.112-7.525,4.675-8.865,6.241-3.258,16.547,4.23,20.919,12.6,1.944,3.725,2.543,7.169,1.786,10.253H34.738L32.82,36.464A1.143,1.143,0,0,0,31.2,38.08l.3.3H28.369A29.879,29.879,0,0,1,26,28.945a1.143,1.143,0,1,0-2.278.183,32.03,32.03,0,0,0,1.585,7.683,16.947,16.947,0,0,0-11.89-4.028,1.142,1.142,0,0,0-.958.626,16.928,16.928,0,0,0-1.489,10.879,1.136,1.136,0,0,0,.064.316A16.876,16.876,0,0,0,12,47.646,16.866,16.866,0,0,0,.165,55.581a1.143,1.143,0,0,0-.023,1.144A16.925,16.925,0,0,0,8.294,64.1a1.138,1.138,0,0,0,.284.12,16.811,16.811,0,0,0,6,1.244c.114,0,.228,0,.342,0a16.757,16.757,0,0,0,2.411-.177,1.154,1.154,0,0,0,.221-.033A16.977,16.977,0,0,0,26.5,60.861a1.145,1.145,0,0,0,.171.014H31.8a1.143,1.143,0,0,0,0-2.285H28.515c.3-.406.584-.827.848-1.263.008-.013.015-.027.022-.041s.015-.024.022-.036a16.937,16.937,0,0,0-.767-16.583h5.15L36.9,43.777a1.143,1.143,0,1,0,1.616-1.616l-1.495-1.495h3.1l4.242,4.242a1.143,1.143,0,1,0,1.616-1.616l-2.626-2.626H59.338l-2.495,1.776A1.142,1.142,0,1,0,58.169,44.3l5.109-3.637h8.451a1.8,1.8,0,0,1,1.8,1.8A16.212,16.212,0,0,1,73.4,44.5l-8.39,6.049A1.143,1.143,0,1,0,66.348,52.4l6.236-4.5A16.212,16.212,0,0,1,65.845,56.2L53.1,43.455a1.143,1.143,0,0,0-1.616,1.616L63.717,57.3a16.006,16.006,0,0,1-5.338,1.258L53.4,53.578a1.143,1.143,0,0,0-1.616,1.616l3.4,3.4H43.993l-1.833-1.833a1.143,1.143,0,1,0-1.616,1.616l.217.217h-4.2a1.143,1.143,0,0,0,0,2.285h6.489l2.577,2.577a1.143,1.143,0,0,0,1.616-1.616l-.961-.961H57.4a18.3,18.3,0,0,0,8.039-1.85l.96.96a1.143,1.143,0,0,0,1.616-1.616l-.517-.517a18.45,18.45,0,0,0,8.012-12.059l2.015-1.453A1.143,1.143,0,0,0,77.784,42.744ZM26.56,41.651c.128.2.249.4.367.6l-2.892,5.739-3.3-5.053,2.311-5.006A14.524,14.524,0,0,1,26.56,41.651Zm-3.776,8.6-6.3.317a14.414,14.414,0,0,1-2.9-5.229l5.925-.1ZM21.091,36.706l-1.833,3.97L15.614,35.1A14.657,14.657,0,0,1,21.091,36.706ZM13.7,36.35l4.333,6.63-4.954.081A14.663,14.663,0,0,1,13.7,36.35ZM13.11,49.807q.138.226.283.449a16.747,16.747,0,0,0,1.693,2.174,1.155,1.155,0,0,0,.151.161,16.9,16.9,0,0,0,3.447,2.8l-6.011-.124-2.834-4.74A14.512,14.512,0,0,1,13.11,49.807ZM7.727,51.449l2.25,3.764-6.662-.137A14.6,14.6,0,0,1,7.727,51.449ZM8.46,61.66a14.662,14.662,0,0,1-5.19-4.3l7.918.163Zm8.119,1.422a14.4,14.4,0,0,1-5.952-.557l3.262-4.946,5.982.123Zm3.116-.714,2.822-4.612,3.468.071.214.017A14.676,14.676,0,0,1,19.694,62.368Zm6.424-6.823a14.677,14.677,0,0,1-7.288-2.809l5.4-.272,2.015,3.083Zm2.048-1.237L25.48,50.2l2.666-5.29A14.68,14.68,0,0,1,28.166,54.307Z" fill="#253d4e"/>
        <path id="Path_56182" data-name="Path 56182" d="M66.571,44.7a1.143,1.143,0,0,0-1.6-.258l-4.026,2.9A1.143,1.143,0,1,0,62.286,49.2l4.026-2.9A1.143,1.143,0,0,0,66.571,44.7Z" fill="#253d4e"/>
      </g>
      <path id="Path_56183" data-name="Path 56183" d="M95.033,61l-.011-5.058-2.507,4.186h-.632l-2.507-4.12V61H88.025V53.37h1.166l3.03,5.058L95.2,53.37h1.166L96.374,61Zm9.441-1.766h-3.815L99.907,61H98.446l3.433-7.63h1.4L106.719,61h-1.482ZM104,58.122l-1.439-3.335-1.428,3.335ZM113.772,61l-1.559-2.235a2.907,2.907,0,0,1-.294.011H110.2V61h-1.417V53.37h3.14a4.186,4.186,0,0,1,1.722.327,2.5,2.5,0,0,1,1.133.937,2.619,2.619,0,0,1,.393,1.45,2.564,2.564,0,0,1-.425,1.482,2.47,2.47,0,0,1-1.2.926L115.3,61Zm-.033-4.916a1.367,1.367,0,0,0-.48-1.123,2.176,2.176,0,0,0-1.406-.392H110.2V57.61h1.657a2.176,2.176,0,0,0,1.406-.392A1.4,1.4,0,0,0,113.739,56.084Zm5.544-1.515h-2.528v-1.2h6.474v1.2H120.7V61h-1.417Zm15.925,6.551-.96-.926a3.8,3.8,0,0,1-2.561.916,3.7,3.7,0,0,1-1.428-.262,2.389,2.389,0,0,1-.992-.719,1.691,1.691,0,0,1-.36-1.057,1.966,1.966,0,0,1,.415-1.243,4.326,4.326,0,0,1,1.351-1.068,3.432,3.432,0,0,1-.654-.85,1.871,1.871,0,0,1-.2-.828,1.594,1.594,0,0,1,.6-1.3,2.463,2.463,0,0,1,1.614-.5,2.26,2.26,0,0,1,1.482.458,1.481,1.481,0,0,1,.556,1.221,1.618,1.618,0,0,1-.371,1.046,4.011,4.011,0,0,1-1.188.926l1.646,1.57a5,5,0,0,0,.425-1.286l1.1.36A5.224,5.224,0,0,1,135,59.321l.96.916Zm-3.172-6.867a1.041,1.041,0,0,0-.709.229.715.715,0,0,0-.261.578.975.975,0,0,0,.141.5,4.033,4.033,0,0,0,.545.632,3.977,3.977,0,0,0,.9-.621.84.84,0,0,0,.262-.589.653.653,0,0,0-.24-.534A.959.959,0,0,0,132.036,54.253ZM131.785,60a2.545,2.545,0,0,0,1.657-.578l-2.017-1.929a3.126,3.126,0,0,0-.926.7,1.152,1.152,0,0,0-.262.741.9.9,0,0,0,.425.774A1.938,1.938,0,0,0,131.785,60Zm15.8-2.9h1.34v3.041a4.257,4.257,0,0,1-1.373.719,5.27,5.27,0,0,1-1.613.251,4.389,4.389,0,0,1-2.1-.5,3.8,3.8,0,0,1-1.471-1.406,4.068,4.068,0,0,1,0-4.033,3.725,3.725,0,0,1,1.471-1.4,4.4,4.4,0,0,1,2.126-.512,4.634,4.634,0,0,1,1.744.316,3.42,3.42,0,0,1,1.318.927l-.893.872a2.869,2.869,0,0,0-2.1-.872,3.006,3.006,0,0,0-1.439.338,2.515,2.515,0,0,0-.981.948,2.767,2.767,0,0,0-.349,1.4,2.724,2.724,0,0,0,.349,1.373,2.593,2.593,0,0,0,.981.959,2.909,2.909,0,0,0,1.428.349,3.072,3.072,0,0,0,1.57-.392Zm9.291,3.9-1.558-2.235a2.917,2.917,0,0,1-.295.011H153.3V61h-1.417V53.37h3.139a4.187,4.187,0,0,1,1.723.327,2.5,2.5,0,0,1,1.133.937,2.62,2.62,0,0,1,.393,1.45,2.564,2.564,0,0,1-.425,1.482,2.47,2.47,0,0,1-1.2.926L158.4,61Zm-.032-4.916a1.367,1.367,0,0,0-.48-1.123,2.176,2.176,0,0,0-1.406-.392H153.3V57.61h1.657a2.176,2.176,0,0,0,1.406-.392A1.4,1.4,0,0,0,156.843,56.084Zm7.667,5.025a4.388,4.388,0,0,1-2.1-.5,3.8,3.8,0,0,1-1.472-1.406,3.892,3.892,0,0,1-.534-2.016,3.835,3.835,0,0,1,.534-2.006,3.7,3.7,0,0,1,1.472-1.406,4.575,4.575,0,0,1,4.207,0,3.734,3.734,0,0,1,1.472,1.4,4.074,4.074,0,0,1,0,4.033,3.812,3.812,0,0,1-1.472,1.406A4.389,4.389,0,0,1,164.51,61.109Zm0-1.243a2.789,2.789,0,0,0,1.374-.338,2.535,2.535,0,0,0,.959-.959,2.784,2.784,0,0,0,.349-1.384,2.724,2.724,0,0,0-.349-1.373,2.438,2.438,0,0,0-.959-.959,2.879,2.879,0,0,0-2.747,0,2.432,2.432,0,0,0-.959.959,2.714,2.714,0,0,0-.349,1.373,2.774,2.774,0,0,0,.349,1.384,2.529,2.529,0,0,0,.959.959A2.788,2.788,0,0,0,164.51,59.866Zm10.233,1.243a4.368,4.368,0,0,1-2.093-.5,3.828,3.828,0,0,1-1.46-1.406,3.915,3.915,0,0,1-.523-2.016,3.855,3.855,0,0,1,.534-2.017,3.749,3.749,0,0,1,1.46-1.4,4.293,4.293,0,0,1,2.093-.512,4.352,4.352,0,0,1,1.711.327,3.489,3.489,0,0,1,1.308.948l-.915.861a2.67,2.67,0,0,0-2.038-.894,2.826,2.826,0,0,0-1.407.349,2.441,2.441,0,0,0-.97.948,2.927,2.927,0,0,0,0,2.769,2.516,2.516,0,0,0,.97.959,2.9,2.9,0,0,0,1.407.338,2.656,2.656,0,0,0,2.038-.9l.915.872a3.47,3.47,0,0,1-1.318.948A4.357,4.357,0,0,1,174.743,61.109Zm11.2-1.3V61h-5.723V53.37h5.57v1.188h-4.153v1.984h3.684v1.166h-3.684v2.1ZM193.6,61l-1.558-2.235a2.917,2.917,0,0,1-.295.011H190.03V61h-1.417V53.37h3.139a4.187,4.187,0,0,1,1.723.327,2.5,2.5,0,0,1,1.133.937,2.62,2.62,0,0,1,.393,1.45,2.564,2.564,0,0,1-.425,1.482,2.47,2.47,0,0,1-1.2.926L195.131,61Zm-.032-4.916a1.367,1.367,0,0,0-.48-1.123,2.176,2.176,0,0,0-1.406-.392H190.03V57.61h1.657a2.176,2.176,0,0,0,1.406-.392A1.4,1.4,0,0,0,193.573,56.084Zm7.288,2.224V61h-1.417V58.329l-3-4.959h1.515l2.234,3.717,2.257-3.717h1.4Z" fill="#253d4e"/>
      <text id="Hato" transform="translate(85 44)" fill="#44b77e" font-size="51" font-family="AirbnbCerealApp-Bold, Airbnb Cereal App" font-weight="700"><tspan x="0" y="0">Hato</tspan></text>
    </g>
  </g>
</svg>
